PING 10.0.0.3 (10.0.0.3) 56(84) bytes of data.
64 bytes from 10.0.0.3: icmp_seq=1 ttl=64 time=12.4 ms
64 bytes from 10.0.0.3: icmp_seq=2 ttl=64 time=11.6 ms
64 bytes from 10.0.0.3: icmp_seq=3 ttl=64 time=10.6 ms
64 bytes from 10.0.0.3: icmp_seq=4 ttl=64 time=10.1 ms
64 bytes from 10.0.0.3: icmp_seq=5 ttl=64 time=10.1 ms
64 bytes from 10.0.0.3: icmp_seq=6 ttl=64 time=10.1 ms
64 bytes from 10.0.0.3: icmp_seq=7 ttl=64 time=10.1 ms
64 bytes from 10.0.0.3: icmp_seq=8 ttl=64 time=10.2 ms
64 bytes from 10.0.0.3: icmp_seq=9 ttl=64 time=10.0 ms
64 bytes from 10.0.0.3: icmp_seq=10 ttl=64 time=10.2 ms
64 bytes from 10.0.0.3: icmp_seq=11 ttl=64 time=10.1 ms
64 bytes from 10.0.0.3: icmp_seq=12 ttl=64 time=10.1 ms
64 bytes from 10.0.0.3: icmp_seq=13 ttl=64 time=10.1 ms
64 bytes from 10.0.0.3: icmp_seq=14 ttl=64 time=10.0 ms
64 bytes from 10.0.0.3: icmp_seq=15 ttl=64 time=10.2 ms
64 bytes from 10.0.0.3: icmp_seq=16 ttl=64 time=10.5 ms
64 bytes from 10.0.0.3: icmp_seq=17 ttl=64 time=10.0 ms
64 bytes from 10.0.0.3: icmp_seq=18 ttl=64 time=10.2 ms
64 bytes from 10.0.0.3: icmp_seq=19 ttl=64 time=10.0 ms
64 bytes from 10.0.0.3: icmp_seq=20 ttl=64 time=10.0 ms

--- 10.0.0.3 ping statistics ---
20 packets transmitted, 20 received, 0% packet loss, time 19025ms
rtt min/avg/max/mdev = 10.078/10.387/12.460/0.607 ms
