PING 10.0.0.5 (10.0.0.5) 56(84) bytes of data.
64 bytes from 10.0.0.5: icmp_seq=1 ttl=64 time=13.0 ms
64 bytes from 10.0.0.5: icmp_seq=2 ttl=64 time=11.5 ms
64 bytes from 10.0.0.5: icmp_seq=3 ttl=64 time=10.3 ms
64 bytes from 10.0.0.5: icmp_seq=4 ttl=64 time=10.1 ms
64 bytes from 10.0.0.5: icmp_seq=5 ttl=64 time=10.1 ms
64 bytes from 10.0.0.5: icmp_seq=6 ttl=64 time=10.1 ms
64 bytes from 10.0.0.5: icmp_seq=7 ttl=64 time=10.0 ms
64 bytes from 10.0.0.5: icmp_seq=8 ttl=64 time=10.1 ms
64 bytes from 10.0.0.5: icmp_seq=9 ttl=64 time=10.0 ms
64 bytes from 10.0.0.5: icmp_seq=10 ttl=64 time=10.2 ms
64 bytes from 10.0.0.5: icmp_seq=11 ttl=64 time=10.1 ms
64 bytes from 10.0.0.5: icmp_seq=12 ttl=64 time=10.1 ms
64 bytes from 10.0.0.5: icmp_seq=13 ttl=64 time=10.0 ms
64 bytes from 10.0.0.5: icmp_seq=14 ttl=64 time=10.1 ms
64 bytes from 10.0.0.5: icmp_seq=15 ttl=64 time=10.1 ms
64 bytes from 10.0.0.5: icmp_seq=16 ttl=64 time=10.2 ms
64 bytes from 10.0.0.5: icmp_seq=17 ttl=64 time=10.1 ms
64 bytes from 10.0.0.5: icmp_seq=18 ttl=64 time=10.2 ms
64 bytes from 10.0.0.5: icmp_seq=19 ttl=64 time=10.1 ms
64 bytes from 10.0.0.5: icmp_seq=20 ttl=64 time=10.2 ms

--- 10.0.0.5 ping statistics ---
20 packets transmitted, 20 received, 0% packet loss, time 19022ms
rtt min/avg/max/mdev = 10.086/10.379/13.033/0.677 ms
